// Jest Snapshot v1, https://goo.gl/fbAQLP

exports[`html custom attachment URL: html-export-custom-url 1`] = `
"<!DOCTYPE html><html xmlns=\\"http://www.w3.org/1999/xhtml\\"><article><header><div><h1>Example Manuscript</h1><div class=\\"contrib-group\\"><span class=\\"contrib\\" id=\\"contrib-1\\" data-uuid=\\"MPContributor:585DB23A-8778-4AFF-986F-CFF7B733CDE6\\"><span class=\\"contrib-name\\"><span class=\\"contrib-given-names\\">Example</span> <span class=\\"contrib-surname\\">Author</span></span><a href=\\"mailto:user@example.com\\"></a><a data-ref-type=\\"aff\\" href=\\"#MPAffiliation:DED56C09-42E2-4AB4-BA15-9260389E2B08\\">1</a></span><span class=\\"contrib\\" id=\\"contrib-2\\" data-corresp=\\"yes\\" data-uuid=\\"MPContributor:8AD5903E-0C9C-4F46-87AE-124142CE12C2\\"><span class=\\"contrib-name\\"><span class=\\"contrib-given-names\\">Corresponding</span> <span class=\\"contrib-surname\\">Author</span></span><a href=\\"mailto:author@example.com\\"></a></span></div><ol class=\\"affiliations-list\\"><li class=\\"affiliation\\" id=\\"affiliation-1\\" data-uuid=\\"MPAffiliation:DED56C09-42E2-4AB4-BA15-9260389E2B08\\">University of Examples</li></ol></div></header><section id=\\"section-1\\" class=\\"toc\\" spellcheck=\\"false\\" data-uuid=\\"MPSection:DFCBE345-A12D-451E-8320-723F25D2F472\\"><h1>Table of Contents</h1><div id=\\"manuscript-toc-1\\" class=\\"manuscript-toc\\" contenteditable=\\"false\\" data-uuid=\\"MPTOCElement:657C54DB-78B5-4206-E322-170F68263A01\\">
  
    
    
    
    

	
      
        
        
        <ul class=\\"manuscript-toc-list\\">
      
	
	 
    <li class=\\"manuscript-toc-list-item\\" data-referenced-section=\\"MPSection:DFCBE345-A12D-451E-8320-723F25D2F472\\" data-referenced-section-path-length=\\"1\\">
      1. Table of Contents
    </li>

    

    
    
    

  
    
    
    
    

	
	 
    <li class=\\"manuscript-toc-list-item\\" data-referenced-section=\\"MPSection:77786D47-6060-4FBC-BC13-5FA754968D6A\\" data-referenced-section-path-length=\\"1\\">
      2. First section
    </li>

    

    
    
    

  
    
    
    
    

	
	 
    <li class=\\"manuscript-toc-list-item\\" data-referenced-section=\\"MPSection:F8EE617B-484B-4CF2-F1CA-014F5307D5CF\\" data-referenced-section-path-length=\\"1\\">
      3. Section Two
    </li>

    

    
    
    

  
    
    
    
    

	
	 
    <li class=\\"manuscript-toc-list-item\\" data-referenced-section=\\"MPSection:E07B0D52-9642-4D58-E577-26F8804E3DEE\\" data-referenced-section-path-length=\\"1\\">
      4. Bibliography
    </li>

    

    
    
    
      </ul>
    

  
</div></section><section id=\\"section-2\\" class=\\"generated-label\\" data-uuid=\\"MPSection:77786D47-6060-4FBC-BC13-5FA754968D6A\\"><h1>First section</h1><p id=\\"p-1\\" class=\\"MPElement MPParagraphStyle_7EAB5784-717B-4672-BD59-8CA324FB0637\\" data-object-type=\\"MPParagraphElement\\" data-placeholder-text=\\"Start from here. Enjoy writing! - the Manuscripts Team.\\" data-uuid=\\"MPParagraphElement:150780D7-CFED-4529-9398-77B5C7625044\\">The first section.</p><p id=\\"p-2\\" class=\\"MPElement MPParagraphStyle_7EAB5784-717B-4672-BD59-8CA324FB0637\\" data-object-type=\\"MPParagraphElement\\" data-uuid=\\"MPParagraphElement:60C13548-23C0-4348-FE98-0510E0B61B18\\">The text in this sentence is <b>bold</b>, <i>italic</i>, or <u>underlined</u>.</p><p id=\\"p-3\\" class=\\"MPElement MPParagraphStyle_7EAB5784-717B-4672-BD59-8CA324FB0637\\" data-object-type=\\"MPParagraphElement\\" data-uuid=\\"MPParagraphElement:A89DC62A-90ED-4283-AB6D-06CA2519D801\\"><b><i><u>The text in this sentence is bold, italic and underlined.</u></i></b></p><p id=\\"p-4\\" class=\\"MPElement MPParagraphStyle_7EAB5784-717B-4672-BD59-8CA324FB0637\\" data-object-type=\\"MPParagraphElement\\" data-uuid=\\"MPParagraphElement:05A0ED43-8928-4C69-A17C-0A98795001CD\\">The text in this sentence is <sup>superscript</sup> and <sub>subscript</sub>.</p></section><section id=\\"section-3\\" class=\\"title-suppressed generated-label\\" data-uuid=\\"MPSection:F8EE617B-484B-4CF2-F1CA-014F5307D5CF\\"><p id=\\"p-5\\" class=\\"MPElement MPParagraphStyle_7EAB5784-717B-4672-BD59-8CA324FB0637\\" data-object-type=\\"MPParagraphElement\\" data-uuid=\\"MPParagraphElement:4DF93A63-D44D-41CF-AF54-23712B8703FA\\">The heading of this section is hidden.</p><ol id=\\"ol-1\\" class=\\"MPElement MPParagraphStyle_7EAB5784-717B-4672-BD59-8CA324FB0637\\" data-object-type=\\"MPListElement\\" data-uuid=\\"MPListElement:D1C6E3B5-C549-47B8-B051-1F534E8AA7E7\\"><li data-placeholder-text=\\"List item\\"><p class=\\"MPElement\\" data-object-type=\\"MPParagraphElement\\">A numbered list.</p></li></ol><ul id=\\"ul-1\\" class=\\"MPElement MPParagraphStyle_7EAB5784-717B-4672-BD59-8CA324FB0637\\" data-object-type=\\"MPListElement\\" data-uuid=\\"MPListElement:F11B9FCA-5DB5-4ED4-FEF9-10CDCB64F96E\\"><li data-placeholder-text=\\"List item\\"><p class=\\"MPElement\\" data-object-type=\\"MPParagraphElement\\">A bullet list.</p></li></ul><ol id=\\"ol-2\\" class=\\"MPElement MPParagraphStyle_7EAB5784-717B-4672-BD59-8CA324FB0637\\" data-object-type=\\"MPListElement\\" data-uuid=\\"MPListElement:AF5341C4-5E24-40BF-B853-F966726431EB\\"><li data-placeholder-text=\\"List item\\"><p class=\\"MPElement\\" data-object-type=\\"MPParagraphElement\\">A numbered list with a nested list.</p><ol><li data-placeholder-text=\\"List item\\"><p class=\\"MPElement\\" data-object-type=\\"MPParagraphElement\\">This item is nested.</p></li></ol></li></ol><figure class=\\"figure\\" id=\\"figure-1\\" data-fig-type=\\"figure\\" data-uuid=\\"MPFigure:D673DF08-D75E-4061-8EC1-9611EAB302F0\\"><img src=\\"http://example.com/MPFigure_D673DF08-D75E-4061-8EC1-9611EAB302F0.png\\" /><label>Figure 1</label><figcaption><label class=\\"caption-title placeholder\\" data-placeholder-text=\\"Title...\\" contenteditable=\\"true\\"></label><p class=\\"caption-description\\" data-placeholder-text=\\"Caption...\\" contenteditable=\\"true\\">A figure with a caption</p></figcaption><figcaption></figcaption></figure><figure class=\\"figure\\" id=\\"figure-2\\" data-fig-type=\\"figure\\" data-uuid=\\"MPFigure:AD65D628-A904-4DC4-A026-F8F4C08F6557\\"><img src=\\"http://example.com/MPFigure_AD65D628-A904-4DC4-A026-F8F4C08F6557.png\\" /><label>Figure 2</label><figcaption></figcaption></figure><figure class=\\"table\\" id=\\"figure-table-1\\" data-paragraph-style=\\"MPParagraphStyle:7EAB5784-717B-4672-BD59-8CA324FB0637\\" data-table-style=\\"MPTableStyle:08C0E93B-848D-491F-8EB2-A8A0B17714BA\\" data-uuid=\\"MPTableElement:82BD8BAF-D136-4536-AD9C-92C30B9D7315\\"><table id=\\"table-1\\" data-header-rows=\\"1\\" data-footer-rows=\\"1\\" data-uuid=\\"MPTable:509A944E-994C-4867-AE55-593628C5DBD5\\"><tbody><tr><th data-placeholder-text=\\"Header 1\\">Table Header</th><th data-placeholder-text=\\"Header 2\\">Table Header</th></tr><tr><td data-placeholder-text=\\"Data\\">Table Data</td><td data-placeholder-text=\\"Data\\">Table Data</td></tr><tr><td data-placeholder-text=\\"Data\\">Table Data</td><td data-placeholder-text=\\"Data\\">Table Data</td></tr><tr><td data-placeholder-text=\\"Footer 1\\">Table Footer</td><td data-placeholder-text=\\"Footer 2\\">Table Footer</td></tr></tbody></table><figcaption><label class=\\"caption-title placeholder\\" data-placeholder-text=\\"Title...\\" contenteditable=\\"true\\"></label><p class=\\"caption-description\\" data-placeholder-text=\\"Caption...\\" contenteditable=\\"true\\">A table</p></figcaption><pre class=\\"listing\\"><code data-language=\\"null\\"></code></pre><label>Table 1</label></figure><figure class=\\"table\\" id=\\"figure-table-2\\" data-paragraph-style=\\"MPParagraphStyle:7EAB5784-717B-4672-BD59-8CA324FB0637\\" data-table-style=\\"MPTableStyle:08C0E93B-848D-491F-8EB2-A8A0B17714BA\\" data-uuid=\\"MPTableElement:E0D445B4-18C4-43D3-97B3-1076A7BB5CF4\\"><table id=\\"table-2\\" data-header-rows=\\"1\\" data-footer-rows=\\"1\\" data-uuid=\\"MPTable:7E83812B-A759-4D38-C1C5-F6507D2FC2A9\\"><tbody><tr><th data-placeholder-text=\\"Header 1\\">Table Header</th><th data-placeholder-text=\\"Header 2\\" class=\\"placeholder\\"></th></tr><tr><td data-placeholder-text=\\"Data\\" class=\\"placeholder\\"></td><td data-placeholder-text=\\"Data\\" class=\\"placeholder\\"></td></tr><tr><td data-placeholder-text=\\"Data\\" class=\\"placeholder\\"></td><td data-placeholder-text=\\"Data\\" class=\\"placeholder\\"></td></tr><tr><td data-placeholder-text=\\"Footer 1\\" class=\\"placeholder\\"></td><td data-placeholder-text=\\"Footer 2\\" class=\\"placeholder\\"></td></tr></tbody></table><figcaption><label class=\\"caption-title placeholder\\" data-placeholder-text=\\"Title...\\" contenteditable=\\"true\\"></label><p class=\\"caption-description\\" data-placeholder-text=\\"Caption...\\" contenteditable=\\"true\\">A table with hidden header</p></figcaption><pre class=\\"listing\\"><code data-language=\\"null\\"></code></pre><label>Table 2</label></figure><figure class=\\"table\\" id=\\"figure-table-3\\" data-paragraph-style=\\"MPParagraphStyle:7EAB5784-717B-4672-BD59-8CA324FB0637\\" data-table-style=\\"MPTableStyle:08C0E93B-848D-491F-8EB2-A8A0B17714BA\\" data-uuid=\\"MPTableElement:1DF69096-DBA3-47B0-B8C2-E06491E4C655\\"><table id=\\"table-3\\" data-header-rows=\\"1\\" data-footer-rows=\\"1\\" data-uuid=\\"MPTable:2A2413E2-71F5-4B6C-F513-7B44748E49A8\\"><tbody><tr><th data-placeholder-text=\\"Header 1\\" class=\\"placeholder\\"></th><th data-placeholder-text=\\"Header 2\\" class=\\"placeholder\\"></th></tr><tr><td data-placeholder-text=\\"Data\\" class=\\"placeholder\\"></td><td data-placeholder-text=\\"Data\\" class=\\"placeholder\\"></td></tr><tr><td data-placeholder-text=\\"Data\\" class=\\"placeholder\\"></td><td data-placeholder-text=\\"Data\\" class=\\"placeholder\\"></td></tr><tr><td data-placeholder-text=\\"Footer 1\\" class=\\"placeholder\\"></td><td data-placeholder-text=\\"Footer 2\\" class=\\"placeholder\\"></td></tr></tbody></table><figcaption><label class=\\"caption-title placeholder\\" data-placeholder-text=\\"Title...\\" contenteditable=\\"true\\"></label><p class=\\"caption-description\\" data-placeholder-text=\\"Caption...\\" contenteditable=\\"true\\">A table with hidden footer</p></figcaption><pre class=\\"listing\\"><code data-language=\\"null\\"></code></pre><label>Table 3</label></figure><figure class=\\"table\\" id=\\"figure-table-4\\" data-paragraph-style=\\"MPParagraphStyle:7EAB5784-717B-4672-BD59-8CA324FB0637\\" data-table-style=\\"MPTableStyle:08C0E93B-848D-491F-8EB2-A8A0B17714BA\\" data-uuid=\\"MPTableElement:89CF51B2-A20C-4AB9-CBD9-F47DAF167DAA\\"><table id=\\"table-4\\" data-header-rows=\\"1\\" data-footer-rows=\\"1\\" data-uuid=\\"MPTable:6C045963-404A-4E1E-FF81-B40E9772A6A6\\"><tbody><tr><th data-placeholder-text=\\"Header 1\\" class=\\"placeholder\\"></th><th data-placeholder-text=\\"Header 2\\" class=\\"placeholder\\"></th></tr><tr><td data-placeholder-text=\\"Data\\" class=\\"placeholder\\"></td><td data-placeholder-text=\\"Data\\" class=\\"placeholder\\"></td></tr><tr><td data-placeholder-text=\\"Data\\" class=\\"placeholder\\"></td><td data-placeholder-text=\\"Data\\" class=\\"placeholder\\"></td></tr><tr><td data-placeholder-text=\\"Footer 1\\" class=\\"placeholder\\"></td><td data-placeholder-text=\\"Footer 2\\" class=\\"placeholder\\"></td></tr></tbody></table><figcaption><label class=\\"caption-title placeholder\\" data-placeholder-text=\\"Title...\\" contenteditable=\\"true\\"></label><p class=\\"caption-description\\" data-placeholder-text=\\"Caption...\\" contenteditable=\\"true\\">A table with hidden caption</p></figcaption><pre class=\\"listing\\"><code data-language=\\"null\\"></code></pre><label>Table 4</label></figure><figure class=\\"equation\\" id=\\"figure-equation-1\\" data-uuid=\\"MPEquationElement:3896A81A-D43B-483F-B990-F64518A940D1\\"><div id=\\"div-1\\" class=\\"MPEquation\\" data-mathml-string-representation=\\"&lt;math xmlns=&quot;http://www.w3.org/1998/Math/MathML&quot; display=&quot;block&quot;&gt;&lt;mn&gt;2&lt;/mn&gt;&lt;mi&gt;x&lt;/mi&gt;&lt;mn&gt;3&lt;/mn&gt;&lt;mo&gt;=&lt;/mo&gt;&lt;mn&gt;6&lt;/mn&gt;&lt;/math&gt;\\" data-tex-representation=\\"2x3=6\\" data-uuid=\\"MPEquation:C900DDA4-BE45-4AF6-8C9F-CA0AA5FCC403\\"><svg xmlns:xlink=\\"http://www.w3.org/1999/xlink\\" xmlns=\\"http://www.w3.org/2000/svg\\" width=\\"7.916ex\\" height=\\"2.097ex\\" viewBox=\\"0 -781.2 3408.1 903.1\\" role=\\"img\\" focusable=\\"false\\" style=\\"vertical-align: -0.283ex;\\"><defs><path stroke-width=\\"1\\" id=\\"MJMAIN-32\\" d=\\"M109 429Q82 429 66 447T50 491Q50 562 103 614T235 666Q326 666 387 610T449 465Q449 422 429 383T381 315T301 241Q265 210 201 149L142 93L218 92Q375 92 385 97Q392 99 409 186V189H449V186Q448 183 436 95T421 3V0H50V19V31Q50 38 56 46T86 81Q115 113 136 137Q145 147 170 174T204 211T233 244T261 278T284 308T305 340T320 369T333 401T340 431T343 464Q343 527 309 573T212 619Q179 619 154 602T119 569T109 550Q109 549 114 549Q132 549 151 535T170 489Q170 464 154 447T109 429Z\\"/><path stroke-width=\\"1\\" id=\\"MJMATHI-78\\" d=\\"M52 289Q59 331 106 386T222 442Q257 442 286 424T329 379Q371 442 430 442Q467 442 494 420T522 361Q522 332 508 314T481 292T458 288Q439 288 427 299T415 328Q415 374 465 391Q454 404 425 404Q412 404 406 402Q368 386 350 336Q290 115 290 78Q290 50 306 38T341 26Q378 26 414 59T463 140Q466 150 469 151T485 153H489Q504 153 504 145Q504 144 502 134Q486 77 440 33T333 -11Q263 -11 227 52Q186 -10 133 -10H127Q78 -10 57 16T35 71Q35 103 54 123T99 143Q142 143 142 101Q142 81 130 66T107 46T94 41L91 40Q91 39 97 36T113 29T132 26Q168 26 194 71Q203 87 217 139T245 247T261 313Q266 340 266 352Q266 380 251 392T217 404Q177 404 142 372T93 290Q91 281 88 280T72 278H58Q52 284 52 289Z\\"/><path stroke-width=\\"1\\" id=\\"MJMAIN-33\\" d=\\"M127 463Q100 463 85 480T69 524Q69 579 117 622T233 665Q268 665 277 664Q351 652 390 611T430 522Q430 470 396 421T302 350L299 348Q299 347 308 345T337 336T375 315Q457 262 457 175Q457 96 395 37T238 -22Q158 -22 100 21T42 130Q42 158 60 175T105 193Q133 193 151 175T169 130Q169 119 166 110T159 94T148 82T136 74T126 70T118 67L114 66Q165 21 238 21Q293 21 321 74Q338 107 338 175V195Q338 290 274 322Q259 328 213 329L171 330L168 332Q166 335 166 348Q166 366 174 366Q202 366 232 371Q266 376 294 413T322 525V533Q322 590 287 612Q265 626 240 626Q208 626 181 615T143 592T132 580H135Q138 579 143 578T153 573T165 566T175 555T183 540T186 520Q186 498 172 481T127 463Z\\"/><path stroke-width=\\"1\\" id=\\"MJMAIN-3D\\" d=\\"M56 347Q56 360 70 367H707Q722 359 722 347Q722 336 708 328L390 327H72Q56 332 56 347ZM56 153Q56 168 72 173H708Q722 163 722 153Q722 140 707 133H70Q56 140 56 153Z\\"/><path stroke-width=\\"1\\" id=\\"MJMAIN-36\\" d=\\"M42 313Q42 476 123 571T303 666Q372 666 402 630T432 550Q432 525 418 510T379 495Q356 495 341 509T326 548Q326 592 373 601Q351 623 311 626Q240 626 194 566Q147 500 147 364L148 360Q153 366 156 373Q197 433 263 433H267Q313 433 348 414Q372 400 396 374T435 317Q456 268 456 210V192Q456 169 451 149Q440 90 387 34T253 -22Q225 -22 199 -14T143 16T92 75T56 172T42 313ZM257 397Q227 397 205 380T171 335T154 278T148 216Q148 133 160 97T198 39Q222 21 251 21Q302 21 329 59Q342 77 347 104T352 209Q352 289 347 316T329 361Q302 397 257 397Z\\"/></defs><g stroke=\\"currentColor\\" fill=\\"currentColor\\" stroke-width=\\"0\\" transform=\\"matrix(1 0 0 -1 0 0)\\"><use xlink:href=\\"#MJMAIN-32\\" x=\\"0\\" y=\\"0\\"/><use xlink:href=\\"#MJMATHI-78\\" x=\\"500\\" y=\\"0\\"/><use xlink:href=\\"#MJMAIN-33\\" x=\\"1073\\" y=\\"0\\"/><use xlink:href=\\"#MJMAIN-3D\\" x=\\"1851\\" y=\\"0\\"/><use xlink:href=\\"#MJMAIN-36\\" x=\\"2907\\" y=\\"0\\"/></g></svg></div><label>Equation 1</label></figure><figure class=\\"listing\\" id=\\"figure-listing-1\\" data-uuid=\\"MPListingElement:160785A9-4BC0-4C55-C4DE-AF5F4D858DCE\\"><pre id=\\"listing-1\\" class=\\"listing\\" data-uuid=\\"MPListing:4D688DCF-29CD-40CC-93BD-2B13CD883257\\"><code data-language=\\"javascript\\">// a JavaScript code block

const x = 'y'</code></pre><figcaption><label class=\\"caption-title placeholder\\" data-placeholder-text=\\"Title...\\" contenteditable=\\"true\\"></label><p class=\\"caption-description placeholder\\" data-placeholder-text=\\"Caption...\\" contenteditable=\\"true\\"></p></figcaption><label>Listing 1</label></figure><p id=\\"p-6\\" class=\\"MPElement MPParagraphStyle_7EAB5784-717B-4672-BD59-8CA324FB0637\\" data-object-type=\\"MPParagraphElement\\" data-uuid=\\"MPParagraphElement:345B8B57-2E5E-45ED-E587-4EAAC2BD63E9\\">An inline equation: <span class=\\"MPInlineMathFragment\\" id=\\"span-1\\" data-tex-representation=\\"3+5=8\\" data-uuid=\\"MPInlineMathFragment:A8A76DC2-EA6A-44BF-E8E7-B4A9EAEDF090\\"><svg xmlns:xlink=\\"http://www.w3.org/1999/xlink\\" width=\\"9.426ex\\" height=\\"2.237ex\\" viewBox=\\"0 -781.2 4058.5 963\\" role=\\"img\\" focusable=\\"false\\" xmlns=\\"http://www.w3.org/2000/svg\\" style=\\"vertical-align: -0.422ex;\\"><defs><path stroke-width=\\"1\\" id=\\"MJMAIN-33\\" d=\\"M127 463Q100 463 85 480T69 524Q69 579 117 622T233 665Q268 665 277 664Q351 652 390 611T430 522Q430 470 396 421T302 350L299 348Q299 347 308 345T337 336T375 315Q457 262 457 175Q457 96 395 37T238 -22Q158 -22 100 21T42 130Q42 158 60 175T105 193Q133 193 151 175T169 130Q169 119 166 110T159 94T148 82T136 74T126 70T118 67L114 66Q165 21 238 21Q293 21 321 74Q338 107 338 175V195Q338 290 274 322Q259 328 213 329L171 330L168 332Q166 335 166 348Q166 366 174 366Q202 366 232 371Q266 376 294 413T322 525V533Q322 590 287 612Q265 626 240 626Q208 626 181 615T143 592T132 580H135Q138 579 143 578T153 573T165 566T175 555T183 540T186 520Q186 498 172 481T127 463Z\\"/><path stroke-width=\\"1\\" id=\\"MJMAIN-2B\\" d=\\"M56 237T56 250T70 270H369V420L370 570Q380 583 389 583Q402 583 409 568V270H707Q722 262 722 250T707 230H409V-68Q401 -82 391 -82H389H387Q375 -82 369 -68V230H70Q56 237 56 250Z\\"/><path stroke-width=\\"1\\" id=\\"MJMAIN-35\\" d=\\"M164 157Q164 133 148 117T109 101H102Q148 22 224 22Q294 22 326 82Q345 115 345 210Q345 313 318 349Q292 382 260 382H254Q176 382 136 314Q132 307 129 306T114 304Q97 304 95 310Q93 314 93 485V614Q93 664 98 664Q100 666 102 666Q103 666 123 658T178 642T253 634Q324 634 389 662Q397 666 402 666Q410 666 410 648V635Q328 538 205 538Q174 538 149 544L139 546V374Q158 388 169 396T205 412T256 420Q337 420 393 355T449 201Q449 109 385 44T229 -22Q148 -22 99 32T50 154Q50 178 61 192T84 210T107 214Q132 214 148 197T164 157Z\\"/><path stroke-width=\\"1\\" id=\\"MJMAIN-3D\\" d=\\"M56 347Q56 360 70 367H707Q722 359 722 347Q722 336 708 328L390 327H72Q56 332 56 347ZM56 153Q56 168 72 173H708Q722 163 722 153Q722 140 707 133H70Q56 140 56 153Z\\"/><path stroke-width=\\"1\\" id=\\"MJMAIN-38\\" d=\\"M70 417T70 494T124 618T248 666Q319 666 374 624T429 515Q429 485 418 459T392 417T361 389T335 371T324 363L338 354Q352 344 366 334T382 323Q457 264 457 174Q457 95 399 37T249 -22Q159 -22 101 29T43 155Q43 263 172 335L154 348Q133 361 127 368Q70 417 70 494ZM286 386L292 390Q298 394 301 396T311 403T323 413T334 425T345 438T355 454T364 471T369 491T371 513Q371 556 342 586T275 624Q268 625 242 625Q201 625 165 599T128 534Q128 511 141 492T167 463T217 431Q224 426 228 424L286 386ZM250 21Q308 21 350 55T392 137Q392 154 387 169T375 194T353 216T330 234T301 253T274 270Q260 279 244 289T218 306L210 311Q204 311 181 294T133 239T107 157Q107 98 150 60T250 21Z\\"/></defs><g stroke=\\"currentColor\\" fill=\\"currentColor\\" stroke-width=\\"0\\" transform=\\"matrix(1 0 0 -1 0 0)\\"><use xlink:href=\\"#MJMAIN-33\\" x=\\"0\\" y=\\"0\\"/><use xlink:href=\\"#MJMAIN-2B\\" x=\\"722\\" y=\\"0\\"/><use xlink:href=\\"#MJMAIN-35\\" x=\\"1723\\" y=\\"0\\"/><use xlink:href=\\"#MJMAIN-3D\\" x=\\"2501\\" y=\\"0\\"/><use xlink:href=\\"#MJMAIN-38\\" x=\\"3558\\" y=\\"0\\"/></g></svg></span></p><p id=\\"p-7\\" class=\\"MPElement MPParagraphStyle_7EAB5784-717B-4672-BD59-8CA324FB0637\\" data-object-type=\\"MPParagraphElement\\" data-uuid=\\"MPParagraphElement:6B6DBF43-F7B2-404C-89DD-0EC1E1442B27\\">A cross-reference to a figure: <a class=\\"cross-reference\\" href=\\"#MPFigure:D673DF08-D75E-4061-8EC1-9611EAB302F0\\" data-reference-ids=\\"MPAuxiliaryObjectReference:82E2F9F9-797F-4397-9084-D98B72C12903\\">Figure 1</a></p><p id=\\"p-8\\" class=\\"MPElement MPParagraphStyle_7EAB5784-717B-4672-BD59-8CA324FB0637\\" data-object-type=\\"MPParagraphElement\\" data-uuid=\\"MPParagraphElement:41B99DAB-F86C-477F-D36C-2B8590B5DAD0\\">A cross-reference to a table: <a class=\\"cross-reference\\" href=\\"#MPTable:509A944E-994C-4867-AE55-593628C5DBD5\\" data-reference-ids=\\"MPAuxiliaryObjectReference:88AF1DCA-B232-4791-8EAA-F38E0025A3C6\\">Table 1</a></p><p id=\\"p-9\\" class=\\"MPElement MPParagraphStyle_7EAB5784-717B-4672-BD59-8CA324FB0637\\" data-object-type=\\"MPParagraphElement\\" data-uuid=\\"MPParagraphElement:C8A173A4-DF32-4242-E800-28A1AE5B48B8\\">A cross-reference to an equation: <a class=\\"cross-reference\\" href=\\"#MPEquation:C900DDA4-BE45-4AF6-8C9F-CA0AA5FCC403\\" data-reference-ids=\\"MPAuxiliaryObjectReference:461D1AFF-1871-4594-8E07-963D3476B7F5\\">Equation 1</a></p><p id=\\"p-10\\" class=\\"MPElement MPParagraphStyle_7EAB5784-717B-4672-BD59-8CA324FB0637\\" data-object-type=\\"MPParagraphElement\\" data-uuid=\\"MPParagraphElement:CB7347E5-8502-4667-82B9-51104BB1FEDB\\"><span class=\\"citation\\" data-reference-ids=\\"MPBibliographyItem:8C394C86-F7B0-48CE-D5BC-E7A10FCE7FA5\\">A hyperlink</span></p><p id=\\"p-11\\" class=\\"MPElement MPParagraphStyle_7EAB5784-717B-4672-BD59-8CA324FB0637\\" data-object-type=\\"MPParagraphElement\\" data-uuid=\\"MPParagraphElement:3708E8C7-441C-4502-8BFC-D3A2059CEF8B\\">A footnote:<span class=\\"footnote\\" data-reference-id=\\"footnote-text-1\\">1</span></p><div class=\\"footnotes\\" id=\\"footnotes-1\\" data-kind=\\"footnote\\" paragraphstyle=\\"MPParagraphStyle:76353811-8E1D-4D11-A1B5-C960C9EEEFCD\\" data-uuid=\\"MPFootnotesElement:4CD7CE08-0880-46BD-FF83-52E32AEFAC3E\\"><div class=\\"footnote-text\\" id=\\"footnote-text-1\\" data-kind=\\"footnote\\" data-uuid=\\"MPFootnote:B1589279-0F3B-472B-BF11-3F59D6B65791\\"><p class=\\"MPElement\\" data-object-type=\\"MPParagraphElement\\">This is a footnote.</p></div></div></section><section id=\\"section-4\\" class=\\"bibliography\\" spellcheck=\\"false\\" data-uuid=\\"MPSection:E07B0D52-9642-4D58-E577-26F8804E3DEE\\"><h1>Bibliography</h1><div class=\\"csl-bib-body\\" id=\\"csl-bib-body-1\\" data-uuid=\\"MPBibliographyElement:5987B3BA-D894-4700-90D6-114E20B9F3B1\\"></div></section></article></html>"
`;

exports[`html export one manuscript from a bundle with multiple: multi-manuscript-html-export 1`] = `
"<!DOCTYPE html><html xmlns=\\"http://www.w3.org/1999/xhtml\\"><article><header><div><h1>Uh-oh, here's another manuscript</h1><div class=\\"contrib-group\\"><span class=\\"contrib\\" id=\\"contrib-1\\" data-corresp=\\"yes\\" data-uuid=\\"MPContributor:369E6D70-949C-430E-B087-9C1E561BEC13\\"><span class=\\"contrib-name\\"><span class=\\"contrib-given-names\\">Casey</span> <span class=\\"contrib-surname\\">Ydenberg</span></span><a href=\\"mailto:smeg@caydenberg.io\\"></a><a data-ref-type=\\"aff\\" href=\\"#MPAffiliation:A3318227-B467-4C97-AF84-9271D55D6FBD\\">1</a></span></div><ol class=\\"affiliations-list\\"><li class=\\"affiliation\\" id=\\"affiliation-1\\" data-uuid=\\"MPAffiliation:A3318227-B467-4C97-AF84-9271D55D6FBD\\">University of Cunning</li></ol></div></header><section id=\\"section-1\\" class=\\"generated-label\\" data-uuid=\\"MPSection:C6FD9C5E-C00E-4823-9507-E246E249B66A\\"><h1>A section heading</h1><p id=\\"p-1\\" class=\\"MPElement\\" data-object-type=\\"MPParagraphElement\\" data-uuid=\\"MPParagraphElement:0EAC7ED3-41FB-468F-A267-60664A2F59B7\\">Ancient reptilian creatures that have a strange relationship with rifts: they are drawn to them and seep up the power of the bridged world in strange ways. Believed by many to be extinct, they tend to avoid the other sentient races.</p><section id=\\"section-2\\" class=\\"generated-label\\" data-uuid=\\"MPSection:EBCC30A6-9123-4CC3-B282-402954ACFD03\\"><h1>A table</h1><figure class=\\"table\\" id=\\"figure-table-1\\" data-paragraph-style=\\"\\" data-table-style=\\"\\" data-uuid=\\"MPTableElement:36132CFA-A6D0-4D8D-A347-0CF1136002FD\\"><table id=\\"table-1\\" data-header-rows=\\"1\\" data-footer-rows=\\"1\\" data-uuid=\\"MPTable:20BF6401-3D6A-41F0-B7C3-BAE20B1D5745\\"><tbody><tr><th data-placeholder-text=\\"Data\\">Elf</th><th data-placeholder-text=\\"Data\\">Dwarf</th></tr><tr><td data-placeholder-text=\\"Data\\">Tall</td><td data-placeholder-text=\\"Data\\">Short</td></tr><tr><td data-placeholder-text=\\"Data\\">Long-lived</td><td data-placeholder-text=\\"Data\\">Live underground</td></tr><tr><td data-placeholder-text=\\"Data\\" class=\\"placeholder\\"></td><td data-placeholder-text=\\"Data\\">Where do they get food?</td></tr></tbody></table><figcaption><label class=\\"caption-title placeholder\\" data-placeholder-text=\\"Title...\\" contenteditable=\\"true\\"></label><p class=\\"caption-description\\" data-placeholder-text=\\"Caption...\\" contenteditable=\\"true\\">Some comparisons</p></figcaption><pre id=\\"listing-1\\" class=\\"listing\\" data-uuid=\\"MPListing:70C7EA88-57D8-4FBB-A661-67EC86D3C9E9\\"><code data-language=\\"null\\"></code></pre><label>Table 1</label></figure><ol id=\\"ol-1\\" class=\\"MPElement\\" data-object-type=\\"MPListElement\\" data-uuid=\\"MPListElement:EFDBD9B7-19D2-44A4-8686-C31572CCB72C\\"><li data-placeholder-text=\\"List item\\"><p class=\\"MPElement\\" data-object-type=\\"MPParagraphElement\\">The Shire</p></li><li data-placeholder-text=\\"List item\\"><p class=\\"MPElement\\" data-object-type=\\"MPParagraphElement\\">Minas Tirith</p></li><li data-placeholder-text=\\"List item\\"><p class=\\"MPElement\\" data-object-type=\\"MPParagraphElement\\">Rivendell</p></li></ol><ul id=\\"ul-1\\" class=\\"MPElement\\" data-object-type=\\"MPListElement\\" data-uuid=\\"MPListElement:5752AF4C-4ED8-4FA5-9BE5-CCAB7DE83C99\\"><li data-placeholder-text=\\"List item\\"><p class=\\"MPElement\\" data-object-type=\\"MPParagraphElement\\">Hobbits</p></li><li data-placeholder-text=\\"List item\\"><p class=\\"MPElement\\" data-object-type=\\"MPParagraphElement\\">Ents</p></li><li data-placeholder-text=\\"List item\\"><p class=\\"MPElement\\" data-object-type=\\"MPParagraphElement\\">Orcs</p></li><li data-placeholder-text=\\"List item\\"><p class=\\"MPElement\\" data-object-type=\\"MPParagraphElement\\">Uruk-hai</p></li></ul><figure class=\\"listing\\" id=\\"figure-listing-1\\" data-uuid=\\"MPListingElement:53F400DD-55BD-4F99-8C68-E9FB59B1E667\\"><pre id=\\"listing-2\\" class=\\"listing\\" data-uuid=\\"MPListing:901B820D-2A8A-4C7C-9C74-F5877A37E3D3\\"><code data-language=\\"clojure\\">;; clojure

(defn roll
  ([sides] (roll 1 sides))

  ([dice sides]
  (let [result (+ (int (rand sides)) 1)]
    (if (&lt; dice 2)
      result
      (+ (roll (- dice 1) sides) result)))))
</code></pre><label>Listing 1</label></figure><figure class=\\"equation\\" id=\\"figure-equation-1\\" data-uuid=\\"MPEquationElement:D562526E-431C-49DA-855D-F78CDD950FB9\\"><div id=\\"div-1\\" class=\\"MPEquation\\" data-tex-representation=\\"PV = nRT\\" data-uuid=\\"MPEquation:D9FE207C-37EB-41C7-AF93-98D6B3281BD4\\"><svg xmlns=\\"http://www.w3.org/2000/svg\\" width=\\"11.123ex\\" height=\\"1.731ex\\" viewBox=\\"0 -683 4916.6 765\\" style=\\"vertical-align: -0.186ex;\\"><g stroke=\\"currentColor\\" fill=\\"currentColor\\" stroke-width=\\"0\\" transform=\\"matrix(1 0 0 -1 0 0)\\"><g data-mml-node=\\"math\\"><g data-mml-node=\\"mi\\"><path data-c=\\"50\\" d=\\"M287 628Q287 635 230 637Q206 637 199 638T192 648Q192 649 194 659Q200 679 203 681T397 683Q587 682 600 680Q664 669 707 631T751 530Q751 453 685 389Q616 321 507 303Q500 302 402 301H307L277 182Q247 66 247 59Q247 55 248 54T255 50T272 48T305 46H336Q342 37 342 35Q342 19 335 5Q330 0 319 0Q316 0 282 1T182 2Q120 2 87 2T51 1Q33 1 33 11Q33 13 36 25Q40 41 44 43T67 46Q94 46 127 49Q141 52 146 61Q149 65 218 339T287 628ZM645 554Q645 567 643 575T634 597T609 619T560 635Q553 636 480 637Q463 637 445 637T416 636T404 636Q391 635 386 627Q384 621 367 550T332 412T314 344Q314 342 395 342H407H430Q542 342 590 392Q617 419 631 471T645 554Z\\"/></g><g data-mml-node=\\"mi\\" transform=\\"translate(751, 0)\\"><path data-c=\\"56\\" d=\\"M52 648Q52 670 65 683H76Q118 680 181 680Q299 680 320 683H330Q336 677 336 674T334 656Q329 641 325 637H304Q282 635 274 635Q245 630 242 620Q242 618 271 369T301 118L374 235Q447 352 520 471T595 594Q599 601 599 609Q599 633 555 637Q537 637 537 648Q537 649 539 661Q542 675 545 679T558 683Q560 683 570 683T604 682T668 681Q737 681 755 683H762Q769 676 769 672Q769 655 760 640Q757 637 743 637Q730 636 719 635T698 630T682 623T670 615T660 608T652 599T645 592L452 282Q272 -9 266 -16Q263 -18 259 -21L241 -22H234Q216 -22 216 -15Q213 -9 177 305Q139 623 138 626Q133 637 76 637H59Q52 642 52 648Z\\"/></g><g data-mml-node=\\"mo\\" transform=\\"translate(1797.8, 0)\\"><path data-c=\\"3D\\" d=\\"M56 347Q56 360 70 367H707Q722 359 722 347Q722 336 708 328L390 327H72Q56 332 56 347ZM56 153Q56 168 72 173H708Q722 163 722 153Q722 140 707 133H70Q56 140 56 153Z\\"/></g><g data-mml-node=\\"mi\\" transform=\\"translate(2853.6, 0)\\"><path data-c=\\"6E\\" d=\\"M21 287Q22 293 24 303T36 341T56 388T89 425T135 442Q171 442 195 424T225 390T231 369Q231 367 232 367L243 378Q304 442 382 442Q436 442 469 415T503 336T465 179T427 52Q427 26 444 26Q450 26 453 27Q482 32 505 65T540 145Q542 153 560 153Q580 153 580 145Q580 144 576 130Q568 101 554 73T508 17T439 -10Q392 -10 371 17T350 73Q350 92 386 193T423 345Q423 404 379 404H374Q288 404 229 303L222 291L189 157Q156 26 151 16Q138 -11 108 -11Q95 -11 87 -5T76 7T74 17Q74 30 112 180T152 343Q153 348 153 366Q153 405 129 405Q91 405 66 305Q60 285 60 284Q58 278 41 278H27Q21 284 21 287Z\\"/></g><g data-mml-node=\\"mi\\" transform=\\"translate(3453.6, 0)\\"><path data-c=\\"52\\" d=\\"M230 637Q203 637 198 638T193 649Q193 676 204 682Q206 683 378 683Q550 682 564 680Q620 672 658 652T712 606T733 563T739 529Q739 484 710 445T643 385T576 351T538 338L545 333Q612 295 612 223Q612 212 607 162T602 80V71Q602 53 603 43T614 25T640 16Q668 16 686 38T712 85Q717 99 720 102T735 105Q755 105 755 93Q755 75 731 36Q693 -21 641 -21H632Q571 -21 531 4T487 82Q487 109 502 166T517 239Q517 290 474 313Q459 320 449 321T378 323H309L277 193Q244 61 244 59Q244 55 245 54T252 50T269 48T302 46H333Q339 38 339 37T336 19Q332 6 326 0H311Q275 2 180 2Q146 2 117 2T71 2T50 1Q33 1 33 10Q33 12 36 24Q41 43 46 45Q50 46 61 46H67Q94 46 127 49Q141 52 146 61Q149 65 218 339T287 628Q287 635 230 637ZM630 554Q630 586 609 608T523 636Q521 636 500 636T462 637H440Q393 637 386 627Q385 624 352 494T319 361Q319 360 388 360Q466 361 492 367Q556 377 592 426Q608 449 619 486T630 554Z\\"/></g><g data-mml-node=\\"mi\\" transform=\\"translate(4212.6, 0)\\"><path data-c=\\"54\\" d=\\"M40 437Q21 437 21 445Q21 450 37 501T71 602L88 651Q93 669 101 677H569H659Q691 677 697 676T704 667Q704 661 687 553T668 444Q668 437 649 437Q640 437 637 437T631 442L629 445Q629 451 635 490T641 551Q641 586 628 604T573 629Q568 630 515 631Q469 631 457 630T439 622Q438 621 368 343T298 60Q298 48 386 46Q418 46 427 45T436 36Q436 31 433 22Q429 4 424 1L422 0Q419 0 415 0Q410 0 363 1T228 2Q99 2 64 0H49Q43 6 43 9T45 27Q49 40 55 46H83H94Q174 46 189 55Q190 56 191 56Q196 59 201 76T241 233Q258 301 269 344Q339 619 339 625Q339 630 310 630H279Q212 630 191 624Q146 614 121 583T67 467Q60 445 57 441T43 437H40Z\\"/></g></g></g></svg></div><label>Equation 1</label></figure><figure class=\\"figure\\" id=\\"figure-1\\" data-fig-type=\\"figure\\" data-uuid=\\"MPFigure:F3D684D3-1C53-44FE-9E66-B927340D571F\\"><img src=\\"MPFigure_F3D684D3-1C53-44FE-9E66-B927340D571F.png\\" /><label>Figure 1</label><figcaption><label class=\\"caption-title placeholder\\" data-placeholder-text=\\"Title...\\" contenteditable=\\"true\\"></label><p class=\\"caption-description\\" data-placeholder-text=\\"Caption...\\" contenteditable=\\"true\\">This is a figure</p></figcaption><figcaption></figcaption></figure></section></section></article></html>"
`;

exports[`html export with citations to fix: html-export-citations 1`] = `
"<!DOCTYPE html><html xmlns=\\"http://www.w3.org/1999/xhtml\\"><article><header><div><h1>Genetic analysis of the actin disassembly system in <i>S. cerevisiae</i></h1><div class=\\"contrib-group\\"><span class=\\"contrib\\" id=\\"contrib-1\\" data-uuid=\\"MPContributor:4B805E24-5128-4F0E-8DF1-8B4FCBAE8037\\"><span class=\\"contrib-name\\"><span class=\\"contrib-given-names\\">Casey</span> <span class=\\"contrib-surname\\">Ydenberg</span></span></span></div></div></header><section id=\\"section-1\\" class=\\"generated-label\\" data-uuid=\\"MPSection:7909E1C9-1614-4315-9A39-F121DB9C4074\\"><h1>Introduction</h1><p id=\\"p-1\\" class=\\"MPElement\\" data-object-type=\\"MPParagraphElement\\" data-uuid=\\"MPParagraphElement:10E6338C-0BE3-43F2-AB2F-D93E754259E8\\">Aip1 genetically interacts with Cofilin in yeast cells <span class=\\"citation\\" data-reference-ids=\\"MPBibliographyItem:7A40557C-5D34-425B-A1A0-2AF963810467 MPBibliographyItem:152D957F-E002-42F3-AB87-71E4980BDD9F\\"><sup>1,2</sup></span> and results in F-actin accumulation in S2 cells, suggesting it acts as a disassembly factor in vivo. Api1 consists of two b-propeller domains, each containing an F-actin site <span class=\\"citation\\" data-reference-ids=\\"MPBibliographyItem:DD769750-2BAA-4930-AB69-BB259CE321B3 MPBibliographyItem:1185136E-B352-46CB-A4A1-F6DDE1457A2D MPBibliographyItem:89329BB0-F1C5-453F-A00D-424A31788513\\"><sup>3–5</sup></span></p></section><section id=\\"section-2\\" class=\\"bibliography\\" spellcheck=\\"false\\" data-uuid=\\"MPSection:1F5802D9-D138-48F9-8E27-D5D34A2031EE\\"><h1>Bibliography</h1><div class=\\"csl-bib-body\\" id=\\"csl-bib-body-1\\" data-uuid=\\"MPBibliographyElement:44AEC08F-8D40-4C2E-BF1E-8E3485537003\\">  <div class=\\"csl-entry\\">
    <div class=\\"csl-left-margin\\">1.</div><div class=\\"csl-right-inline\\">Rodal, A. A. &amp; Littleton, J. T. Synaptic Endocytosis: Illuminating the Role of Clathrin Assembly. <i>Current Biology</i> <b>18</b>, R259–R261 (2008).</div>
  </div>

  <div class=\\"csl-entry\\">
    <div class=\\"csl-left-margin\\">2.</div><div class=\\"csl-right-inline\\">Zhao, L., Wang, D., Wang, Q., Rodal, A. A. &amp; Zhang, Y. Q. Drosophila cyfip Regulates Synaptic Development and Endocytosis by Suppressing Filamentous Actin Assembly. <i>PLoS Genet</i> <b>9</b>, e1003450 (2013).</div>
  </div>

  <div class=\\"csl-entry\\">
    <div class=\\"csl-left-margin\\">3.</div><div class=\\"csl-right-inline\\">Voegtli, W. C., Madrona, A. Y. &amp; Wilson, D. K. The Structure of Aip1p, a WD Repeat Protein That Regulates Cofilin-mediated Actin Depolymerization. <i>J. Biol. Chem.</i> <b>278</b>, 34373–34379 (2003).</div>
  </div>

  <div class=\\"csl-entry\\">
    <div class=\\"csl-left-margin\\">4.</div><div class=\\"csl-right-inline\\">Guicciardi, M. E. &amp; Gores, G. J. AIP1: a new player in TNF signaling. <i>J. Clin. Invest.</i> <b>111</b>, 1813–1815 (2003).</div>
  </div>

  <div class=\\"csl-entry\\">
    <div class=\\"csl-left-margin\\">5.</div><div class=\\"csl-right-inline\\">Okada, K., Ravi, H., Smith, E. M. &amp; Goode, B. L. Aip1 and Cofilin Promote Rapid Turnover of Yeast Actin Patches and Cables: A Coordinated Mechanism for Severing and Capping Filaments. <i>MBoC</i> <b>17</b>, 2855–2868 (2006).</div>
  </div>
</div></section></article></html>"
`;

exports[`html export: html-export 1`] = `
"<!DOCTYPE html><html xmlns=\\"http://www.w3.org/1999/xhtml\\"><article><header><div><h1>Example Manuscript</h1><div class=\\"contrib-group\\"><span class=\\"contrib\\" id=\\"contrib-1\\" data-uuid=\\"MPContributor:585DB23A-8778-4AFF-986F-CFF7B733CDE6\\"><span class=\\"contrib-name\\"><span class=\\"contrib-given-names\\">Example</span> <span class=\\"contrib-surname\\">Author</span></span><a href=\\"mailto:user@example.com\\"></a><a data-ref-type=\\"aff\\" href=\\"#MPAffiliation:DED56C09-42E2-4AB4-BA15-9260389E2B08\\">1</a></span><span class=\\"contrib\\" id=\\"contrib-2\\" data-corresp=\\"yes\\" data-uuid=\\"MPContributor:8AD5903E-0C9C-4F46-87AE-124142CE12C2\\"><span class=\\"contrib-name\\"><span class=\\"contrib-given-names\\">Corresponding</span> <span class=\\"contrib-surname\\">Author</span></span><a href=\\"mailto:author@example.com\\"></a></span></div><ol class=\\"affiliations-list\\"><li class=\\"affiliation\\" id=\\"affiliation-1\\" data-uuid=\\"MPAffiliation:DED56C09-42E2-4AB4-BA15-9260389E2B08\\">University of Examples</li></ol></div></header><section id=\\"section-1\\" class=\\"toc\\" spellcheck=\\"false\\" data-uuid=\\"MPSection:DFCBE345-A12D-451E-8320-723F25D2F472\\"><h1>Table of Contents</h1><div id=\\"manuscript-toc-1\\" class=\\"manuscript-toc\\" contenteditable=\\"false\\" data-uuid=\\"MPTOCElement:657C54DB-78B5-4206-E322-170F68263A01\\">
  
    
    
    
    

	
      
        
        
        <ul class=\\"manuscript-toc-list\\">
      
	
	 
    <li class=\\"manuscript-toc-list-item\\" data-referenced-section=\\"MPSection:DFCBE345-A12D-451E-8320-723F25D2F472\\" data-referenced-section-path-length=\\"1\\">
      1. Table of Contents
    </li>

    

    
    
    

  
    
    
    
    

	
	 
    <li class=\\"manuscript-toc-list-item\\" data-referenced-section=\\"MPSection:77786D47-6060-4FBC-BC13-5FA754968D6A\\" data-referenced-section-path-length=\\"1\\">
      2. First section
    </li>

    

    
    
    

  
    
    
    
    

	
	 
    <li class=\\"manuscript-toc-list-item\\" data-referenced-section=\\"MPSection:F8EE617B-484B-4CF2-F1CA-014F5307D5CF\\" data-referenced-section-path-length=\\"1\\">
      3. Section Two
    </li>

    

    
    
    

  
    
    
    
    

	
	 
    <li class=\\"manuscript-toc-list-item\\" data-referenced-section=\\"MPSection:E07B0D52-9642-4D58-E577-26F8804E3DEE\\" data-referenced-section-path-length=\\"1\\">
      4. Bibliography
    </li>

    

    
    
    
      </ul>
    

  
</div></section><section id=\\"section-2\\" class=\\"generated-label\\" data-uuid=\\"MPSection:77786D47-6060-4FBC-BC13-5FA754968D6A\\"><h1>First section</h1><p id=\\"p-1\\" class=\\"MPElement MPParagraphStyle_7EAB5784-717B-4672-BD59-8CA324FB0637\\" data-object-type=\\"MPParagraphElement\\" data-placeholder-text=\\"Start from here. Enjoy writing! - the Manuscripts Team.\\" data-uuid=\\"MPParagraphElement:150780D7-CFED-4529-9398-77B5C7625044\\">The first section.</p><p id=\\"p-2\\" class=\\"MPElement MPParagraphStyle_7EAB5784-717B-4672-BD59-8CA324FB0637\\" data-object-type=\\"MPParagraphElement\\" data-uuid=\\"MPParagraphElement:60C13548-23C0-4348-FE98-0510E0B61B18\\">The text in this sentence is <b>bold</b>, <i>italic</i>, or <u>underlined</u>.</p><p id=\\"p-3\\" class=\\"MPElement MPParagraphStyle_7EAB5784-717B-4672-BD59-8CA324FB0637\\" data-object-type=\\"MPParagraphElement\\" data-uuid=\\"MPParagraphElement:A89DC62A-90ED-4283-AB6D-06CA2519D801\\"><b><i><u>The text in this sentence is bold, italic and underlined.</u></i></b></p><p id=\\"p-4\\" class=\\"MPElement MPParagraphStyle_7EAB5784-717B-4672-BD59-8CA324FB0637\\" data-object-type=\\"MPParagraphElement\\" data-uuid=\\"MPParagraphElement:05A0ED43-8928-4C69-A17C-0A98795001CD\\">The text in this sentence is <sup>superscript</sup> and <sub>subscript</sub>.</p></section><section id=\\"section-3\\" class=\\"title-suppressed generated-label\\" data-uuid=\\"MPSection:F8EE617B-484B-4CF2-F1CA-014F5307D5CF\\"><p id=\\"p-5\\" class=\\"MPElement MPParagraphStyle_7EAB5784-717B-4672-BD59-8CA324FB0637\\" data-object-type=\\"MPParagraphElement\\" data-uuid=\\"MPParagraphElement:4DF93A63-D44D-41CF-AF54-23712B8703FA\\">The heading of this section is hidden.</p><ol id=\\"ol-1\\" class=\\"MPElement MPParagraphStyle_7EAB5784-717B-4672-BD59-8CA324FB0637\\" data-object-type=\\"MPListElement\\" data-uuid=\\"MPListElement:D1C6E3B5-C549-47B8-B051-1F534E8AA7E7\\"><li data-placeholder-text=\\"List item\\"><p class=\\"MPElement\\" data-object-type=\\"MPParagraphElement\\">A numbered list.</p></li></ol><ul id=\\"ul-1\\" class=\\"MPElement MPParagraphStyle_7EAB5784-717B-4672-BD59-8CA324FB0637\\" data-object-type=\\"MPListElement\\" data-uuid=\\"MPListElement:F11B9FCA-5DB5-4ED4-FEF9-10CDCB64F96E\\"><li data-placeholder-text=\\"List item\\"><p class=\\"MPElement\\" data-object-type=\\"MPParagraphElement\\">A bullet list.</p></li></ul><ol id=\\"ol-2\\" class=\\"MPElement MPParagraphStyle_7EAB5784-717B-4672-BD59-8CA324FB0637\\" data-object-type=\\"MPListElement\\" data-uuid=\\"MPListElement:AF5341C4-5E24-40BF-B853-F966726431EB\\"><li data-placeholder-text=\\"List item\\"><p class=\\"MPElement\\" data-object-type=\\"MPParagraphElement\\">A numbered list with a nested list.</p><ol><li data-placeholder-text=\\"List item\\"><p class=\\"MPElement\\" data-object-type=\\"MPParagraphElement\\">This item is nested.</p></li></ol></li></ol><figure class=\\"figure\\" id=\\"figure-1\\" data-fig-type=\\"figure\\" data-uuid=\\"MPFigure:D673DF08-D75E-4061-8EC1-9611EAB302F0\\"><img src=\\"MPFigure_D673DF08-D75E-4061-8EC1-9611EAB302F0.png\\" /><label>Figure 1</label><figcaption><label class=\\"caption-title placeholder\\" data-placeholder-text=\\"Title...\\" contenteditable=\\"true\\"></label><p class=\\"caption-description\\" data-placeholder-text=\\"Caption...\\" contenteditable=\\"true\\">A figure with a caption</p></figcaption><figcaption></figcaption></figure><figure class=\\"figure\\" id=\\"figure-2\\" data-fig-type=\\"figure\\" data-uuid=\\"MPFigure:AD65D628-A904-4DC4-A026-F8F4C08F6557\\"><img src=\\"MPFigure_AD65D628-A904-4DC4-A026-F8F4C08F6557.png\\" /><label>Figure 2</label><figcaption></figcaption></figure><figure class=\\"table\\" id=\\"figure-table-1\\" data-paragraph-style=\\"MPParagraphStyle:7EAB5784-717B-4672-BD59-8CA324FB0637\\" data-table-style=\\"MPTableStyle:08C0E93B-848D-491F-8EB2-A8A0B17714BA\\" data-uuid=\\"MPTableElement:82BD8BAF-D136-4536-AD9C-92C30B9D7315\\"><table id=\\"table-1\\" data-header-rows=\\"1\\" data-footer-rows=\\"1\\" data-uuid=\\"MPTable:509A944E-994C-4867-AE55-593628C5DBD5\\"><tbody><tr><th data-placeholder-text=\\"Header 1\\">Table Header</th><th data-placeholder-text=\\"Header 2\\">Table Header</th></tr><tr><td data-placeholder-text=\\"Data\\">Table Data</td><td data-placeholder-text=\\"Data\\">Table Data</td></tr><tr><td data-placeholder-text=\\"Data\\">Table Data</td><td data-placeholder-text=\\"Data\\">Table Data</td></tr><tr><td data-placeholder-text=\\"Footer 1\\">Table Footer</td><td data-placeholder-text=\\"Footer 2\\">Table Footer</td></tr></tbody></table><figcaption><label class=\\"caption-title placeholder\\" data-placeholder-text=\\"Title...\\" contenteditable=\\"true\\"></label><p class=\\"caption-description\\" data-placeholder-text=\\"Caption...\\" contenteditable=\\"true\\">A table</p></figcaption><pre class=\\"listing\\"><code data-language=\\"null\\"></code></pre><label>Table 1</label></figure><figure class=\\"table\\" id=\\"figure-table-2\\" data-paragraph-style=\\"MPParagraphStyle:7EAB5784-717B-4672-BD59-8CA324FB0637\\" data-table-style=\\"MPTableStyle:08C0E93B-848D-491F-8EB2-A8A0B17714BA\\" data-uuid=\\"MPTableElement:E0D445B4-18C4-43D3-97B3-1076A7BB5CF4\\"><table id=\\"table-2\\" data-header-rows=\\"1\\" data-footer-rows=\\"1\\" data-uuid=\\"MPTable:7E83812B-A759-4D38-C1C5-F6507D2FC2A9\\"><tbody><tr><th data-placeholder-text=\\"Header 1\\">Table Header</th><th data-placeholder-text=\\"Header 2\\" class=\\"placeholder\\"></th></tr><tr><td data-placeholder-text=\\"Data\\" class=\\"placeholder\\"></td><td data-placeholder-text=\\"Data\\" class=\\"placeholder\\"></td></tr><tr><td data-placeholder-text=\\"Data\\" class=\\"placeholder\\"></td><td data-placeholder-text=\\"Data\\" class=\\"placeholder\\"></td></tr><tr><td data-placeholder-text=\\"Footer 1\\" class=\\"placeholder\\"></td><td data-placeholder-text=\\"Footer 2\\" class=\\"placeholder\\"></td></tr></tbody></table><figcaption><label class=\\"caption-title placeholder\\" data-placeholder-text=\\"Title...\\" contenteditable=\\"true\\"></label><p class=\\"caption-description\\" data-placeholder-text=\\"Caption...\\" contenteditable=\\"true\\">A table with hidden header</p></figcaption><pre class=\\"listing\\"><code data-language=\\"null\\"></code></pre><label>Table 2</label></figure><figure class=\\"table\\" id=\\"figure-table-3\\" data-paragraph-style=\\"MPParagraphStyle:7EAB5784-717B-4672-BD59-8CA324FB0637\\" data-table-style=\\"MPTableStyle:08C0E93B-848D-491F-8EB2-A8A0B17714BA\\" data-uuid=\\"MPTableElement:1DF69096-DBA3-47B0-B8C2-E06491E4C655\\"><table id=\\"table-3\\" data-header-rows=\\"1\\" data-footer-rows=\\"1\\" data-uuid=\\"MPTable:2A2413E2-71F5-4B6C-F513-7B44748E49A8\\"><tbody><tr><th data-placeholder-text=\\"Header 1\\" class=\\"placeholder\\"></th><th data-placeholder-text=\\"Header 2\\" class=\\"placeholder\\"></th></tr><tr><td data-placeholder-text=\\"Data\\" class=\\"placeholder\\"></td><td data-placeholder-text=\\"Data\\" class=\\"placeholder\\"></td></tr><tr><td data-placeholder-text=\\"Data\\" class=\\"placeholder\\"></td><td data-placeholder-text=\\"Data\\" class=\\"placeholder\\"></td></tr><tr><td data-placeholder-text=\\"Footer 1\\" class=\\"placeholder\\"></td><td data-placeholder-text=\\"Footer 2\\" class=\\"placeholder\\"></td></tr></tbody></table><figcaption><label class=\\"caption-title placeholder\\" data-placeholder-text=\\"Title...\\" contenteditable=\\"true\\"></label><p class=\\"caption-description\\" data-placeholder-text=\\"Caption...\\" contenteditable=\\"true\\">A table with hidden footer</p></figcaption><pre class=\\"listing\\"><code data-language=\\"null\\"></code></pre><label>Table 3</label></figure><figure class=\\"table\\" id=\\"figure-table-4\\" data-paragraph-style=\\"MPParagraphStyle:7EAB5784-717B-4672-BD59-8CA324FB0637\\" data-table-style=\\"MPTableStyle:08C0E93B-848D-491F-8EB2-A8A0B17714BA\\" data-uuid=\\"MPTableElement:89CF51B2-A20C-4AB9-CBD9-F47DAF167DAA\\"><table id=\\"table-4\\" data-header-rows=\\"1\\" data-footer-rows=\\"1\\" data-uuid=\\"MPTable:6C045963-404A-4E1E-FF81-B40E9772A6A6\\"><tbody><tr><th data-placeholder-text=\\"Header 1\\" class=\\"placeholder\\"></th><th data-placeholder-text=\\"Header 2\\" class=\\"placeholder\\"></th></tr><tr><td data-placeholder-text=\\"Data\\" class=\\"placeholder\\"></td><td data-placeholder-text=\\"Data\\" class=\\"placeholder\\"></td></tr><tr><td data-placeholder-text=\\"Data\\" class=\\"placeholder\\"></td><td data-placeholder-text=\\"Data\\" class=\\"placeholder\\"></td></tr><tr><td data-placeholder-text=\\"Footer 1\\" class=\\"placeholder\\"></td><td data-placeholder-text=\\"Footer 2\\" class=\\"placeholder\\"></td></tr></tbody></table><figcaption><label class=\\"caption-title placeholder\\" data-placeholder-text=\\"Title...\\" contenteditable=\\"true\\"></label><p class=\\"caption-description\\" data-placeholder-text=\\"Caption...\\" contenteditable=\\"true\\">A table with hidden caption</p></figcaption><pre class=\\"listing\\"><code data-language=\\"null\\"></code></pre><label>Table 4</label></figure><figure class=\\"equation\\" id=\\"figure-equation-1\\" data-uuid=\\"MPEquationElement:3896A81A-D43B-483F-B990-F64518A940D1\\"><div id=\\"div-1\\" class=\\"MPEquation\\" data-mathml-string-representation=\\"&lt;math xmlns=&quot;http://www.w3.org/1998/Math/MathML&quot; display=&quot;block&quot;&gt;&lt;mn&gt;2&lt;/mn&gt;&lt;mi&gt;x&lt;/mi&gt;&lt;mn&gt;3&lt;/mn&gt;&lt;mo&gt;=&lt;/mo&gt;&lt;mn&gt;6&lt;/mn&gt;&lt;/math&gt;\\" data-tex-representation=\\"2x3=6\\" data-uuid=\\"MPEquation:C900DDA4-BE45-4AF6-8C9F-CA0AA5FCC403\\"><svg xmlns:xlink=\\"http://www.w3.org/1999/xlink\\" xmlns=\\"http://www.w3.org/2000/svg\\" width=\\"7.916ex\\" height=\\"2.097ex\\" viewBox=\\"0 -781.2 3408.1 903.1\\" role=\\"img\\" focusable=\\"false\\" style=\\"vertical-align: -0.283ex;\\"><defs><path stroke-width=\\"1\\" id=\\"MJMAIN-32\\" d=\\"M109 429Q82 429 66 447T50 491Q50 562 103 614T235 666Q326 666 387 610T449 465Q449 422 429 383T381 315T301 241Q265 210 201 149L142 93L218 92Q375 92 385 97Q392 99 409 186V189H449V186Q448 183 436 95T421 3V0H50V19V31Q50 38 56 46T86 81Q115 113 136 137Q145 147 170 174T204 211T233 244T261 278T284 308T305 340T320 369T333 401T340 431T343 464Q343 527 309 573T212 619Q179 619 154 602T119 569T109 550Q109 549 114 549Q132 549 151 535T170 489Q170 464 154 447T109 429Z\\"/><path stroke-width=\\"1\\" id=\\"MJMATHI-78\\" d=\\"M52 289Q59 331 106 386T222 442Q257 442 286 424T329 379Q371 442 430 442Q467 442 494 420T522 361Q522 332 508 314T481 292T458 288Q439 288 427 299T415 328Q415 374 465 391Q454 404 425 404Q412 404 406 402Q368 386 350 336Q290 115 290 78Q290 50 306 38T341 26Q378 26 414 59T463 140Q466 150 469 151T485 153H489Q504 153 504 145Q504 144 502 134Q486 77 440 33T333 -11Q263 -11 227 52Q186 -10 133 -10H127Q78 -10 57 16T35 71Q35 103 54 123T99 143Q142 143 142 101Q142 81 130 66T107 46T94 41L91 40Q91 39 97 36T113 29T132 26Q168 26 194 71Q203 87 217 139T245 247T261 313Q266 340 266 352Q266 380 251 392T217 404Q177 404 142 372T93 290Q91 281 88 280T72 278H58Q52 284 52 289Z\\"/><path stroke-width=\\"1\\" id=\\"MJMAIN-33\\" d=\\"M127 463Q100 463 85 480T69 524Q69 579 117 622T233 665Q268 665 277 664Q351 652 390 611T430 522Q430 470 396 421T302 350L299 348Q299 347 308 345T337 336T375 315Q457 262 457 175Q457 96 395 37T238 -22Q158 -22 100 21T42 130Q42 158 60 175T105 193Q133 193 151 175T169 130Q169 119 166 110T159 94T148 82T136 74T126 70T118 67L114 66Q165 21 238 21Q293 21 321 74Q338 107 338 175V195Q338 290 274 322Q259 328 213 329L171 330L168 332Q166 335 166 348Q166 366 174 366Q202 366 232 371Q266 376 294 413T322 525V533Q322 590 287 612Q265 626 240 626Q208 626 181 615T143 592T132 580H135Q138 579 143 578T153 573T165 566T175 555T183 540T186 520Q186 498 172 481T127 463Z\\"/><path stroke-width=\\"1\\" id=\\"MJMAIN-3D\\" d=\\"M56 347Q56 360 70 367H707Q722 359 722 347Q722 336 708 328L390 327H72Q56 332 56 347ZM56 153Q56 168 72 173H708Q722 163 722 153Q722 140 707 133H70Q56 140 56 153Z\\"/><path stroke-width=\\"1\\" id=\\"MJMAIN-36\\" d=\\"M42 313Q42 476 123 571T303 666Q372 666 402 630T432 550Q432 525 418 510T379 495Q356 495 341 509T326 548Q326 592 373 601Q351 623 311 626Q240 626 194 566Q147 500 147 364L148 360Q153 366 156 373Q197 433 263 433H267Q313 433 348 414Q372 400 396 374T435 317Q456 268 456 210V192Q456 169 451 149Q440 90 387 34T253 -22Q225 -22 199 -14T143 16T92 75T56 172T42 313ZM257 397Q227 397 205 380T171 335T154 278T148 216Q148 133 160 97T198 39Q222 21 251 21Q302 21 329 59Q342 77 347 104T352 209Q352 289 347 316T329 361Q302 397 257 397Z\\"/></defs><g stroke=\\"currentColor\\" fill=\\"currentColor\\" stroke-width=\\"0\\" transform=\\"matrix(1 0 0 -1 0 0)\\"><use xlink:href=\\"#MJMAIN-32\\" x=\\"0\\" y=\\"0\\"/><use xlink:href=\\"#MJMATHI-78\\" x=\\"500\\" y=\\"0\\"/><use xlink:href=\\"#MJMAIN-33\\" x=\\"1073\\" y=\\"0\\"/><use xlink:href=\\"#MJMAIN-3D\\" x=\\"1851\\" y=\\"0\\"/><use xlink:href=\\"#MJMAIN-36\\" x=\\"2907\\" y=\\"0\\"/></g></svg></div><label>Equation 1</label></figure><figure class=\\"listing\\" id=\\"figure-listing-1\\" data-uuid=\\"MPListingElement:160785A9-4BC0-4C55-C4DE-AF5F4D858DCE\\"><pre id=\\"listing-1\\" class=\\"listing\\" data-uuid=\\"MPListing:4D688DCF-29CD-40CC-93BD-2B13CD883257\\"><code data-language=\\"javascript\\">// a JavaScript code block

const x = 'y'</code></pre><figcaption><label class=\\"caption-title placeholder\\" data-placeholder-text=\\"Title...\\" contenteditable=\\"true\\"></label><p class=\\"caption-description placeholder\\" data-placeholder-text=\\"Caption...\\" contenteditable=\\"true\\"></p></figcaption><label>Listing 1</label></figure><p id=\\"p-6\\" class=\\"MPElement MPParagraphStyle_7EAB5784-717B-4672-BD59-8CA324FB0637\\" data-object-type=\\"MPParagraphElement\\" data-uuid=\\"MPParagraphElement:345B8B57-2E5E-45ED-E587-4EAAC2BD63E9\\">An inline equation: <span class=\\"MPInlineMathFragment\\" id=\\"span-1\\" data-tex-representation=\\"3+5=8\\" data-uuid=\\"MPInlineMathFragment:A8A76DC2-EA6A-44BF-E8E7-B4A9EAEDF090\\"><svg xmlns:xlink=\\"http://www.w3.org/1999/xlink\\" width=\\"9.426ex\\" height=\\"2.237ex\\" viewBox=\\"0 -781.2 4058.5 963\\" role=\\"img\\" focusable=\\"false\\" xmlns=\\"http://www.w3.org/2000/svg\\" style=\\"vertical-align: -0.422ex;\\"><defs><path stroke-width=\\"1\\" id=\\"MJMAIN-33\\" d=\\"M127 463Q100 463 85 480T69 524Q69 579 117 622T233 665Q268 665 277 664Q351 652 390 611T430 522Q430 470 396 421T302 350L299 348Q299 347 308 345T337 336T375 315Q457 262 457 175Q457 96 395 37T238 -22Q158 -22 100 21T42 130Q42 158 60 175T105 193Q133 193 151 175T169 130Q169 119 166 110T159 94T148 82T136 74T126 70T118 67L114 66Q165 21 238 21Q293 21 321 74Q338 107 338 175V195Q338 290 274 322Q259 328 213 329L171 330L168 332Q166 335 166 348Q166 366 174 366Q202 366 232 371Q266 376 294 413T322 525V533Q322 590 287 612Q265 626 240 626Q208 626 181 615T143 592T132 580H135Q138 579 143 578T153 573T165 566T175 555T183 540T186 520Q186 498 172 481T127 463Z\\"/><path stroke-width=\\"1\\" id=\\"MJMAIN-2B\\" d=\\"M56 237T56 250T70 270H369V420L370 570Q380 583 389 583Q402 583 409 568V270H707Q722 262 722 250T707 230H409V-68Q401 -82 391 -82H389H387Q375 -82 369 -68V230H70Q56 237 56 250Z\\"/><path stroke-width=\\"1\\" id=\\"MJMAIN-35\\" d=\\"M164 157Q164 133 148 117T109 101H102Q148 22 224 22Q294 22 326 82Q345 115 345 210Q345 313 318 349Q292 382 260 382H254Q176 382 136 314Q132 307 129 306T114 304Q97 304 95 310Q93 314 93 485V614Q93 664 98 664Q100 666 102 666Q103 666 123 658T178 642T253 634Q324 634 389 662Q397 666 402 666Q410 666 410 648V635Q328 538 205 538Q174 538 149 544L139 546V374Q158 388 169 396T205 412T256 420Q337 420 393 355T449 201Q449 109 385 44T229 -22Q148 -22 99 32T50 154Q50 178 61 192T84 210T107 214Q132 214 148 197T164 157Z\\"/><path stroke-width=\\"1\\" id=\\"MJMAIN-3D\\" d=\\"M56 347Q56 360 70 367H707Q722 359 722 347Q722 336 708 328L390 327H72Q56 332 56 347ZM56 153Q56 168 72 173H708Q722 163 722 153Q722 140 707 133H70Q56 140 56 153Z\\"/><path stroke-width=\\"1\\" id=\\"MJMAIN-38\\" d=\\"M70 417T70 494T124 618T248 666Q319 666 374 624T429 515Q429 485 418 459T392 417T361 389T335 371T324 363L338 354Q352 344 366 334T382 323Q457 264 457 174Q457 95 399 37T249 -22Q159 -22 101 29T43 155Q43 263 172 335L154 348Q133 361 127 368Q70 417 70 494ZM286 386L292 390Q298 394 301 396T311 403T323 413T334 425T345 438T355 454T364 471T369 491T371 513Q371 556 342 586T275 624Q268 625 242 625Q201 625 165 599T128 534Q128 511 141 492T167 463T217 431Q224 426 228 424L286 386ZM250 21Q308 21 350 55T392 137Q392 154 387 169T375 194T353 216T330 234T301 253T274 270Q260 279 244 289T218 306L210 311Q204 311 181 294T133 239T107 157Q107 98 150 60T250 21Z\\"/></defs><g stroke=\\"currentColor\\" fill=\\"currentColor\\" stroke-width=\\"0\\" transform=\\"matrix(1 0 0 -1 0 0)\\"><use xlink:href=\\"#MJMAIN-33\\" x=\\"0\\" y=\\"0\\"/><use xlink:href=\\"#MJMAIN-2B\\" x=\\"722\\" y=\\"0\\"/><use xlink:href=\\"#MJMAIN-35\\" x=\\"1723\\" y=\\"0\\"/><use xlink:href=\\"#MJMAIN-3D\\" x=\\"2501\\" y=\\"0\\"/><use xlink:href=\\"#MJMAIN-38\\" x=\\"3558\\" y=\\"0\\"/></g></svg></span></p><p id=\\"p-7\\" class=\\"MPElement MPParagraphStyle_7EAB5784-717B-4672-BD59-8CA324FB0637\\" data-object-type=\\"MPParagraphElement\\" data-uuid=\\"MPParagraphElement:6B6DBF43-F7B2-404C-89DD-0EC1E1442B27\\">A cross-reference to a figure: <a class=\\"cross-reference\\" href=\\"#MPFigure:D673DF08-D75E-4061-8EC1-9611EAB302F0\\" data-reference-ids=\\"MPAuxiliaryObjectReference:82E2F9F9-797F-4397-9084-D98B72C12903\\">Figure 1</a></p><p id=\\"p-8\\" class=\\"MPElement MPParagraphStyle_7EAB5784-717B-4672-BD59-8CA324FB0637\\" data-object-type=\\"MPParagraphElement\\" data-uuid=\\"MPParagraphElement:41B99DAB-F86C-477F-D36C-2B8590B5DAD0\\">A cross-reference to a table: <a class=\\"cross-reference\\" href=\\"#MPTable:509A944E-994C-4867-AE55-593628C5DBD5\\" data-reference-ids=\\"MPAuxiliaryObjectReference:88AF1DCA-B232-4791-8EAA-F38E0025A3C6\\">Table 1</a></p><p id=\\"p-9\\" class=\\"MPElement MPParagraphStyle_7EAB5784-717B-4672-BD59-8CA324FB0637\\" data-object-type=\\"MPParagraphElement\\" data-uuid=\\"MPParagraphElement:C8A173A4-DF32-4242-E800-28A1AE5B48B8\\">A cross-reference to an equation: <a class=\\"cross-reference\\" href=\\"#MPEquation:C900DDA4-BE45-4AF6-8C9F-CA0AA5FCC403\\" data-reference-ids=\\"MPAuxiliaryObjectReference:461D1AFF-1871-4594-8E07-963D3476B7F5\\">Equation 1</a></p><p id=\\"p-10\\" class=\\"MPElement MPParagraphStyle_7EAB5784-717B-4672-BD59-8CA324FB0637\\" data-object-type=\\"MPParagraphElement\\" data-uuid=\\"MPParagraphElement:CB7347E5-8502-4667-82B9-51104BB1FEDB\\"><span class=\\"citation\\" data-reference-ids=\\"MPBibliographyItem:8C394C86-F7B0-48CE-D5BC-E7A10FCE7FA5\\">A hyperlink</span></p><p id=\\"p-11\\" class=\\"MPElement MPParagraphStyle_7EAB5784-717B-4672-BD59-8CA324FB0637\\" data-object-type=\\"MPParagraphElement\\" data-uuid=\\"MPParagraphElement:3708E8C7-441C-4502-8BFC-D3A2059CEF8B\\">A footnote:<span class=\\"footnote\\" data-reference-id=\\"footnote-text-1\\">1</span></p><div class=\\"footnotes\\" id=\\"footnotes-1\\" data-kind=\\"footnote\\" paragraphstyle=\\"MPParagraphStyle:76353811-8E1D-4D11-A1B5-C960C9EEEFCD\\" data-uuid=\\"MPFootnotesElement:4CD7CE08-0880-46BD-FF83-52E32AEFAC3E\\"><div class=\\"footnote-text\\" id=\\"footnote-text-1\\" data-kind=\\"footnote\\" data-uuid=\\"MPFootnote:B1589279-0F3B-472B-BF11-3F59D6B65791\\"><p class=\\"MPElement\\" data-object-type=\\"MPParagraphElement\\">This is a footnote.</p></div></div></section><section id=\\"section-4\\" class=\\"bibliography\\" spellcheck=\\"false\\" data-uuid=\\"MPSection:E07B0D52-9642-4D58-E577-26F8804E3DEE\\"><h1>Bibliography</h1><div class=\\"csl-bib-body\\" id=\\"csl-bib-body-1\\" data-uuid=\\"MPBibliographyElement:5987B3BA-D894-4700-90D6-114E20B9F3B1\\"></div></section></article></html>"
`;
